{
  "messages": [{
    "created_at": "2012-07-17T13:41:01Z",
    "updated_at": "2012-07-17T13:41:01Z",
    "note": false,
    "body": "Some body text",
    "plain_text_body": "Some body text",
    "href": "https://api.groovehq.com/v1/messages/5",
    "links": {
      "attachments": {
        "href": "https://api.groovehq.com/v1/attachments?message=764578238"
      },
      "author": {
        "href": "https://api.groovehq.com/v1/customers/customer@somewhere.com"
      },
      "recipient": {
        "href": "https://api.groovehq.com/v1/agents/matt@groovehq.com"
      },
      "ticket": {
        "href": "https://api.groovehq.com/v1/tickets/1"
      }
    }
  }],
  "meta": {
    "pagination": {
      "current_page": 1,
      "total_pages": 23,
      "total_count": 23,
      "next_page": "http://api.groovehq.dev/v1/tickets/1/messages?page=2"
    }
  }
}