{
    "tickets": [{
        "assigned_group": null,
        "created_at": "2012-07-17T13:41:01Z",
        "number": 1,
        "priority": null,
        "resolution_time": null,
        "title": null,
        "updated_at": "2012-07-17T13:41:01Z",
        "href": "https://api.groovehq.com/v1/tickets/1",
        "closed_by": null,
        "tags": ["important"],
        "message_count": 1,
        "summary": "This is the first 100 characters of the first message...",
        "links": {
            "assignee": {
                "href": "https://api.groovehq.com/v1/agents/matt@groovehq.com"
            },
            "customer": {
                "href": "https://api.groovehq.com/v1/customers/customer@somewhere.com"
            },
            "state": {
                "href": "https://api.groovehq.com/v1/tickets/1/state"
            },
            "messages": {
                "href": "https://api.groovehq.com/v1/tickets/1/messages"
            }
        }
    }],
    "meta": {
        "pagination": {
            "current_page": 1,
            "total_pages": 23,
            "total_count": 23,
            "next_page": "http://api.groovehq.dev/v1/tickets?page=2"
        }
    }
}